id,x,y,z,ow,ox,oy,oz,vis,sel,lock,label,desc,associatedNodeID
vtkMRMLMarkupsFiducialNode_0,1.0060529006335095,18.668463716374685,0.7809418737216802,0,0,0,1,1,1,0,F-1,nan,vtkMRMLScalarVolumeNode1
vtkMRMLMarkupsFiducialNode_1,0.3959796919047136,20.697374062754253,-1.3876212640747898,0,0,0,1,1,1,0,F-2,nan,vtkMRMLScalarVolumeNode1
